1 0 1 1 1 0 1 1 0 1 1
1 0 1 1 0 0 0 0 0 0 0
0 0 0 0 0 1 1 0 1 0 1
1 1 1 0 0 1 1 0 0 0 1
1 1 1 0 0 1 1 0 1 0 1
0 0 0 0 0 0 0 0 0 0 0
0 0 0 0 0 0 0 0 0 0 0
1 0 1 0 0 1 1 0 1 0 1
0 0 0 0 0 1 1 0 1 1 1
1 1 1 0 0 0 0 0 0 1 0
1 1 1 0 0 1 1 0 1 1 1
310 384 310 0 0.002 0 1 0